{"i": [["[\"bias_add_grad\", 768, 6144]", "cuda -keys=cuda,gpu -max_num_threads=1024 -thread_warp_size=32", [-1, 16, 64, 49152, 2147483647, 1024, 8, 32], "", 0, []], [[], [["SP", 1, 1, 6144, [48], 1], ["AN", 1, 2, 6], ["AN", 1, 0, 5], ["PR", 1, 0, "auto_unroll_max_step$0"]]]], "r": [[1e+10], 6, 15, 1629490577], "v": "v0.6"}
{"i": [["[\"bias_add_grad\", 768, 6144]", "cuda -keys=cuda,gpu -max_num_threads=1024 -thread_warp_size=32", [-1, 16, 64, 49152, 2147483647, 1024, 8, 32], "", 0, []], [[], [["SP", 1, 0, 768, [3], 1], ["AN", 1, 0, 5], ["AN", 1, 1, 6], ["PR", 1, 0, "auto_unroll_max_step$1024"]]]], "r": [[1e+10], 6, 15, 1629490577], "v": "v0.6"}
{"i": [["[\"bias_add_grad\", 768, 6144]", "cuda -keys=cuda,gpu -max_num_threads=1024 -thread_warp_size=32", [-1, 16, 64, 49152, 2147483647, 1024, 8, 32], "", 0, []], [[], [["SP", 1, 1, 6144, [64], 1], ["AN", 1, 2, 6], ["AN", 1, 0, 5], ["PR", 1, 0, "auto_unroll_max_step$512"]]]], "r": [[1e+10], 6, 15, 1629490577], "v": "v0.6"}
{"i": [["[\"bias_add_grad\", 768, 6144]", "cuda -keys=cuda,gpu -max_num_threads=1024 -thread_warp_size=32", [-1, 16, 64, 49152, 2147483647, 1024, 8, 32], "", 0, []], [[], [["SP", 1, 1, 6144, [48], 1], ["AN", 1, 2, 6], ["AN", 1, 0, 5], ["PR", 1, 0, "auto_unroll_max_step$64"]]]], "r": [[1e+10], 6, 15, 1629490577], "v": "v0.6"}
{"i": [["[\"bias_add_grad\", 768, 6144]", "cuda -keys=cuda,gpu -max_num_threads=1024 -thread_warp_size=32", [-1, 16, 64, 49152, 2147483647, 1024, 8, 32], "", 0, []], [[], [["SP", 1, 0, 768, [3], 1], ["AN", 1, 0, 5], ["AN", 1, 1, 6], ["PR", 1, 0, "auto_unroll_max_step$512"]]]], "r": [[1e+10], 6, 15, 1629490577], "v": "v0.6"}
{"i": [["[\"bias_add_grad\", 768, 6144]", "cuda -keys=cuda,gpu -max_num_threads=1024 -thread_warp_size=32", [-1, 16, 64, 49152, 2147483647, 1024, 8, 32], "", 0, []], [[], [["SP", 1, 1, 6144, [3], 1], ["AN", 1, 2, 6], ["AN", 1, 0, 5], ["PR", 1, 0, "auto_unroll_max_step$0"]]]], "r": [[1e+10], 6, 15, 1629490577], "v": "v0.6"}
{"i": [["[\"bias_add_grad\", 768, 6144]", "cuda -keys=cuda,gpu -max_num_threads=1024 -thread_warp_size=32", [-1, 16, 64, 49152, 2147483647, 1024, 8, 32], "", 0, []], [[], [["SP", 1, 1, 6144, [1], 1], ["AN", 1, 2, 6], ["AN", 1, 0, 5], ["PR", 1, 0, "auto_unroll_max_step$0"]]]], "r": [[0.000145546], 0, 2.77999, 1629490578], "v": "v0.6"}
{"i": [["[\"bias_add_grad\", 768, 6144]", "cuda -keys=cuda,gpu -max_num_threads=1024 -thread_warp_size=32", [-1, 16, 64, 49152, 2147483647, 1024, 8, 32], "", 0, []], [[], [["SP", 1, 1, 6144, [2], 1], ["AN", 1, 2, 6], ["AN", 1, 0, 5], ["PR", 1, 0, "auto_unroll_max_step$64"]]]], "r": [[1e+10], 6, 15, 1629490578], "v": "v0.6"}
{"i": [["[\"bias_add_grad\", 768, 6144]", "cuda -keys=cuda,gpu -max_num_threads=1024 -thread_warp_size=32", [-1, 16, 64, 49152, 2147483647, 1024, 8, 32], "", 0, []], [[], [["SP", 1, 0, 768, [12], 1], ["AN", 1, 0, 5], ["AN", 1, 1, 6], ["PR", 1, 0, "auto_unroll_max_step$16"]]]], "r": [[1e+10], 6, 15, 1629490578], "v": "v0.6"}
{"i": [["[\"bias_add_grad\", 768, 6144]", "cuda -keys=cuda,gpu -max_num_threads=1024 -thread_warp_size=32", [-1, 16, 64, 49152, 2147483647, 1024, 8, 32], "", 0, []], [[], [["SP", 1, 0, 768, [6], 1], ["AN", 1, 0, 5], ["AN", 1, 1, 6], ["PR", 1, 0, "auto_unroll_max_step$512"]]]], "r": [[8.01411e-05], 0, 2.05645, 1629490580], "v": "v0.6"}
{"i": [["[\"bias_add_grad\", 768, 6144]", "cuda -keys=cuda,gpu -max_num_threads=1024 -thread_warp_size=32", [-1, 16, 64, 49152, 2147483647, 1024, 8, 32], "", 0, []], [[], [["SP", 1, 0, 768, [48], 1], ["AN", 1, 0, 5], ["AN", 1, 1, 6], ["PR", 1, 0, "auto_unroll_max_step$64"]]]], "r": [[1e+10], 6, 15, 1629490580], "v": "v0.6"}
{"i": [["[\"bias_add_grad\", 768, 6144]", "cuda -keys=cuda,gpu -max_num_threads=1024 -thread_warp_size=32", [-1, 16, 64, 49152, 2147483647, 1024, 8, 32], "", 0, []], [[], [["SP", 1, 0, 768, [48], 1], ["AN", 1, 0, 5], ["AN", 1, 1, 6], ["PR", 1, 0, "auto_unroll_max_step$1024"]]]], "r": [[1e+10], 6, 15, 1629490580], "v": "v0.6"}
{"i": [["[\"bias_add_grad\", 768, 6144]", "cuda -keys=cuda,gpu -max_num_threads=1024 -thread_warp_size=32", [-1, 16, 64, 49152, 2147483647, 1024, 8, 32], "", 0, []], [[], [["SP", 1, 0, 768, [48], 1], ["AN", 1, 0, 5], ["AN", 1, 1, 6], ["PR", 1, 0, "auto_unroll_max_step$0"]]]], "r": [[1e+10], 6, 15, 1629490580], "v": "v0.6"}
{"i": [["[\"bias_add_grad\", 768, 6144]", "cuda -keys=cuda,gpu -max_num_threads=1024 -thread_warp_size=32", [-1, 16, 64, 49152, 2147483647, 1024, 8, 32], "", 0, []], [[], [["SP", 1, 1, 6144, [3], 1], ["AN", 1, 2, 6], ["AN", 1, 0, 5], ["PR", 1, 0, "auto_unroll_max_step$1024"]]]], "r": [[1e+10], 6, 15, 1629490580], "v": "v0.6"}
{"i": [["[\"bias_add_grad\", 768, 6144]", "cuda -keys=cuda,gpu -max_num_threads=1024 -thread_warp_size=32", [-1, 16, 64, 49152, 2147483647, 1024, 8, 32], "", 0, []], [[], [["SP", 1, 1, 6144, [24], 1], ["AN", 1, 2, 6], ["AN", 1, 0, 5], ["PR", 1, 0, "auto_unroll_max_step$16"]]]], "r": [[1e+10], 6, 15, 1629490580], "v": "v0.6"}
{"i": [["[\"bias_add_grad\", 768, 6144]", "cuda -keys=cuda,gpu -max_num_threads=1024 -thread_warp_size=32", [-1, 16, 64, 49152, 2147483647, 1024, 8, 32], "", 0, []], [[], [["SP", 1, 0, 768, [24], 1], ["AN", 1, 0, 5], ["AN", 1, 1, 6], ["PR", 1, 0, "auto_unroll_max_step$1024"]]]], "r": [[1e+10], 6, 15, 1629490580], "v": "v0.6"}
{"i": [["[\"bias_add_grad\", 768, 6144]", "cuda -keys=cuda,gpu -max_num_threads=1024 -thread_warp_size=32", [-1, 16, 64, 49152, 2147483647, 1024, 8, 32], "", 0, []], [[], [["SP", 1, 0, 768, [8], 1], ["AN", 1, 0, 5], ["AN", 1, 1, 6], ["PR", 1, 0, "auto_unroll_max_step$512"]]]], "r": [[7.97785e-05], 0, 1.98571, 1629490581], "v": "v0.6"}
{"i": [["[\"bias_add_grad\", 768, 6144]", "cuda -keys=cuda,gpu -max_num_threads=1024 -thread_warp_size=32", [-1, 16, 64, 49152, 2147483647, 1024, 8, 32], "", 0, []], [[], [["SP", 1, 1, 6144, [8], 1], ["AN", 1, 2, 6], ["AN", 1, 0, 5], ["PR", 1, 0, "auto_unroll_max_step$16"]]]], "r": [[8.3061e-05], 0, 2.30538, 1629490582], "v": "v0.6"}
{"i": [["[\"bias_add_grad\", 768, 6144]", "cuda -keys=cuda,gpu -max_num_threads=1024 -thread_warp_size=32", [-1, 16, 64, 49152, 2147483647, 1024, 8, 32], "", 0, []], [[], [["SP", 1, 1, 6144, [32], 1], ["AN", 1, 2, 6], ["AN", 1, 0, 5], ["PR", 1, 0, "auto_unroll_max_step$64"]]]], "r": [[8.282e-05], 0, 2.49707, 1629490584], "v": "v0.6"}
{"i": [["[\"bias_add_grad\", 768, 6144]", "cuda -keys=cuda,gpu -max_num_threads=1024 -thread_warp_size=32", [-1, 16, 64, 49152, 2147483647, 1024, 8, 32], "", 0, []], [[], [["SP", 1, 0, 768, [8], 1], ["AN", 1, 0, 5], ["AN", 1, 1, 6], ["PR", 1, 0, "auto_unroll_max_step$16"]]]], "r": [[7.9769e-05], 0, 3.13303, 1629490585], "v": "v0.6"}
{"i": [["[\"bias_add_grad\", 768, 6144]", "cuda -keys=cuda,gpu -max_num_threads=1024 -thread_warp_size=32", [-1, 16, 64, 49152, 2147483647, 1024, 8, 32], "", 0, []], [[], [["SP", 1, 0, 768, [6], 1], ["AN", 1, 0, 5], ["AN", 1, 1, 6], ["PR", 1, 0, "auto_unroll_max_step$16"]]]], "r": [[8.0231e-05], 0, 2.81758, 1629490586], "v": "v0.6"}
{"i": [["[\"bias_add_grad\", 768, 6144]", "cuda -keys=cuda,gpu -max_num_threads=1024 -thread_warp_size=32", [-1, 16, 64, 49152, 2147483647, 1024, 8, 32], "", 0, []], [[], [["SP", 1, 1, 6144, [24], 1], ["AN", 1, 2, 6], ["AN", 1, 0, 5], ["PR", 1, 0, "auto_unroll_max_step$512"]]]], "r": [[8.30339e-05], 0, 2.65722, 1629490587], "v": "v0.6"}
{"i": [["[\"bias_add_grad\", 768, 6144]", "cuda -keys=cuda,gpu -max_num_threads=1024 -thread_warp_size=32", [-1, 16, 64, 49152, 2147483647, 1024, 8, 32], "", 0, []], [[], [["SP", 1, 1, 6144, [32], 1], ["AN", 1, 2, 6], ["AN", 1, 0, 5], ["PR", 1, 0, "auto_unroll_max_step$512"]]]], "r": [[8.28428e-05], 0, 2.38364, 1629490589], "v": "v0.6"}
{"i": [["[\"bias_add_grad\", 768, 6144]", "cuda -keys=cuda,gpu -max_num_threads=1024 -thread_warp_size=32", [-1, 16, 64, 49152, 2147483647, 1024, 8, 32], "", 0, []], [[], [["SP", 1, 0, 768, [64], 1], ["AN", 1, 0, 5], ["AN", 1, 1, 6], ["PR", 1, 0, "auto_unroll_max_step$1024"]]]], "r": [[0.000156391], 0, 2.96247, 1629490590], "v": "v0.6"}
{"i": [["[\"bias_add_grad\", 768, 6144]", "cuda -keys=cuda,gpu -max_num_threads=1024 -thread_warp_size=32", [-1, 16, 64, 49152, 2147483647, 1024, 8, 32], "", 0, []], [[], [["SP", 1, 1, 6144, [6], 1], ["AN", 1, 2, 6], ["AN", 1, 0, 5], ["PR", 1, 0, "auto_unroll_max_step$64"]]]], "r": [[8.29534e-05], 0, 2.28552, 1629490591], "v": "v0.6"}
{"i": [["[\"bias_add_grad\", 768, 6144]", "cuda -keys=cuda,gpu -max_num_threads=1024 -thread_warp_size=32", [-1, 16, 64, 49152, 2147483647, 1024, 8, 32], "", 0, []], [[], [["SP", 1, 0, 768, [64], 1], ["AN", 1, 0, 5], ["AN", 1, 1, 6], ["PR", 1, 0, "auto_unroll_max_step$512"]]]], "r": [[0.000156397], 0, 1.9042, 1629490592], "v": "v0.6"}
{"i": [["[\"bias_add_grad\", 768, 6144]", "cuda -keys=cuda,gpu -max_num_threads=1024 -thread_warp_size=32", [-1, 16, 64, 49152, 2147483647, 1024, 8, 32], "", 0, []], [[], [["SP", 1, 0, 768, [1], 1], ["AN", 1, 0, 5], ["AN", 1, 1, 6], ["PR", 1, 0, "auto_unroll_max_step$0"]]]], "r": [[0.000160453], 0, 2.32551, 1629490594], "v": "v0.6"}
{"i": [["[\"bias_add_grad\", 768, 6144]", "cuda -keys=cuda,gpu -max_num_threads=1024 -thread_warp_size=32", [-1, 16, 64, 49152, 2147483647, 1024, 8, 32], "", 0, []], [[], [["SP", 1, 1, 6144, [12], 1], ["AN", 1, 2, 6], ["AN", 1, 0, 5], ["PR", 1, 0, "auto_unroll_max_step$0"]]]], "r": [[8.28851e-05], 0, 1.81649, 1629490595], "v": "v0.6"}
{"i": [["[\"bias_add_grad\", 768, 6144]", "cuda -keys=cuda,gpu -max_num_threads=1024 -thread_warp_size=32", [-1, 16, 64, 49152, 2147483647, 1024, 8, 32], "", 0, []], [[], [["SP", 1, 1, 6144, [24], 1], ["AN", 1, 2, 6], ["AN", 1, 0, 5], ["PR", 1, 0, "auto_unroll_max_step$0"]]]], "r": [[8.29214e-05], 0, 2.15652, 1629490596], "v": "v0.6"}
{"i": [["[\"bias_add_grad\", 768, 6144]", "cuda -keys=cuda,gpu -max_num_threads=1024 -thread_warp_size=32", [-1, 16, 64, 49152, 2147483647, 1024, 8, 32], "", 0, []], [[], [["SP", 1, 0, 768, [1], 1], ["AN", 1, 0, 5], ["AN", 1, 1, 6], ["PR", 1, 0, "auto_unroll_max_step$16"]]]], "r": [[0.000160449], 0, 2.22576, 1629490598], "v": "v0.6"}
{"i": [["[\"bias_add_grad\", 768, 6144]", "cuda -keys=cuda,gpu -max_num_threads=1024 -thread_warp_size=32", [-1, 16, 64, 49152, 2147483647, 1024, 8, 32], "", 0, []], [[], [["SP", 1, 1, 6144, [6], 1], ["AN", 1, 2, 6], ["AN", 1, 0, 5], ["PR", 1, 0, "auto_unroll_max_step$16"]]]], "r": [[8.29395e-05], 0, 1.90026, 1629490599], "v": "v0.6"}
{"i": [["[\"bias_add_grad\", 768, 6144]", "cuda -keys=cuda,gpu -max_num_threads=1024 -thread_warp_size=32", [-1, 16, 64, 49152, 2147483647, 1024, 8, 32], "", 0, []], [[], [["SP", 1, 1, 6144, [32], 1], ["AN", 1, 2, 6], ["AN", 1, 0, 5], ["PR", 1, 0, "auto_unroll_max_step$0"]]]], "r": [[8.28189e-05], 0, 1.84739, 1629490600], "v": "v0.6"}
{"i": [["[\"bias_add_grad\", 768, 6144]", "cuda -keys=cuda,gpu -max_num_threads=1024 -thread_warp_size=32", [-1, 16, 64, 49152, 2147483647, 1024, 8, 32], "", 0, []], [[], [["SP", 1, 1, 6144, [64], 1], ["AN", 1, 2, 6], ["AN", 1, 0, 5], ["PR", 1, 0, "auto_unroll_max_step$16"]]]], "r": [[8.2896e-05], 0, 2.06209, 1629490601], "v": "v0.6"}
{"i": [["[\"bias_add_grad\", 768, 6144]", "cuda -keys=cuda,gpu -max_num_threads=1024 -thread_warp_size=32", [-1, 16, 64, 49152, 2147483647, 1024, 8, 32], "", 0, []], [[], [["SP", 1, 0, 768, [12], 1], ["AN", 1, 0, 5], ["AN", 1, 1, 6], ["PR", 1, 0, "auto_unroll_max_step$0"]]]], "r": [[7.80718e-05], 0, 1.84921, 1629490603], "v": "v0.6"}
{"i": [["[\"bias_add_grad\", 768, 6144]", "cuda -keys=cuda,gpu -max_num_threads=1024 -thread_warp_size=32", [-1, 16, 64, 49152, 2147483647, 1024, 8, 32], "", 0, []], [[], [["SP", 1, 0, 768, [4], 1], ["AN", 1, 0, 5], ["AN", 1, 1, 6], ["PR", 1, 0, "auto_unroll_max_step$1024"]]]], "r": [[8.2653e-05], 0, 2.35336, 1629490604], "v": "v0.6"}
{"i": [["[\"bias_add_grad\", 768, 6144]", "cuda -keys=cuda,gpu -max_num_threads=1024 -thread_warp_size=32", [-1, 16, 64, 49152, 2147483647, 1024, 8, 32], "", 0, []], [[], [["SP", 1, 0, 768, [16], 1], ["AN", 1, 0, 5], ["AN", 1, 1, 6], ["PR", 1, 0, "auto_unroll_max_step$64"]]]], "r": [[7.8831e-05], 0, 1.86643, 1629490605], "v": "v0.6"}
{"i": [["[\"bias_add_grad\", 768, 6144]", "cuda -keys=cuda,gpu -max_num_threads=1024 -thread_warp_size=32", [-1, 16, 64, 49152, 2147483647, 1024, 8, 32], "", 0, []], [[], [["SP", 1, 0, 768, [12], 1], ["AN", 1, 0, 5], ["AN", 1, 1, 6], ["PR", 1, 0, "auto_unroll_max_step$64"]]]], "r": [[7.80081e-05], 0, 2.23068, 1629490606], "v": "v0.6"}
{"i": [["[\"bias_add_grad\", 768, 6144]", "cuda -keys=cuda,gpu -max_num_threads=1024 -thread_warp_size=32", [-1, 16, 64, 49152, 2147483647, 1024, 8, 32], "", 0, []], [[], [["SP", 1, 0, 768, [48], 1], ["AN", 1, 0, 5], ["AN", 1, 1, 6], ["PR", 1, 0, "auto_unroll_max_step$512"]]]], "r": [[0.000161942], 0, 2.02252, 1629490608], "v": "v0.6"}
{"i": [["[\"bias_add_grad\", 768, 6144]", "cuda -keys=cuda,gpu -max_num_threads=1024 -thread_warp_size=32", [-1, 16, 64, 49152, 2147483647, 1024, 8, 32], "", 0, []], [[], [["SP", 1, 1, 6144, [2], 1], ["AN", 1, 2, 6], ["AN", 1, 0, 5], ["PR", 1, 0, "auto_unroll_max_step$16"]]]], "r": [[8.36716e-05], 0, 1.87107, 1629490609], "v": "v0.6"}
{"i": [["[\"bias_add_grad\", 768, 6144]", "cuda -keys=cuda,gpu -max_num_threads=1024 -thread_warp_size=32", [-1, 16, 64, 49152, 2147483647, 1024, 8, 32], "", 0, []], [[], [["SP", 1, 0, 768, [6], 1], ["AN", 1, 0, 5], ["AN", 1, 1, 6], ["PR", 1, 0, "auto_unroll_max_step$0"]]]], "r": [[8.02066e-05], 0, 2.01454, 1629490610], "v": "v0.6"}
{"i": [["[\"bias_add_grad\", 768, 6144]", "cuda -keys=cuda,gpu -max_num_threads=1024 -thread_warp_size=32", [-1, 16, 64, 49152, 2147483647, 1024, 8, 32], "", 0, []], [[], [["SP", 1, 0, 768, [6], 1], ["AN", 1, 0, 5], ["AN", 1, 1, 6], ["PR", 1, 0, "auto_unroll_max_step$64"]]]], "r": [[8.02081e-05], 0, 1.81917, 1629490612], "v": "v0.6"}
{"i": [["[\"bias_add_grad\", 768, 6144]", "cuda -keys=cuda,gpu -max_num_threads=1024 -thread_warp_size=32", [-1, 16, 64, 49152, 2147483647, 1024, 8, 32], "", 0, []], [[], [["SP", 1, 0, 768, [6], 1], ["AN", 1, 0, 5], ["AN", 1, 1, 6], ["PR", 1, 0, "auto_unroll_max_step$1024"]]]], "r": [[8.02279e-05], 0, 2.48961, 1629490613], "v": "v0.6"}
{"i": [["[\"bias_add_grad\", 768, 6144]", "cuda -keys=cuda,gpu -max_num_threads=1024 -thread_warp_size=32", [-1, 16, 64, 49152, 2147483647, 1024, 8, 32], "", 0, []], [[], [["SP", 1, 0, 768, [2], 1], ["AN", 1, 0, 5], ["AN", 1, 1, 6], ["PR", 1, 0, "auto_unroll_max_step$16"]]]], "r": [[8.67021e-05], 0, 2.2229, 1629490614], "v": "v0.6"}
{"i": [["[\"bias_add_grad\", 768, 6144]", "cuda -keys=cuda,gpu -max_num_threads=1024 -thread_warp_size=32", [-1, 16, 64, 49152, 2147483647, 1024, 8, 32], "", 0, []], [[], [["SP", 1, 0, 768, [4], 1], ["AN", 1, 0, 5], ["AN", 1, 1, 6], ["PR", 1, 0, "auto_unroll_max_step$0"]]]], "r": [[8.26436e-05], 0, 2.10935, 1629490616], "v": "v0.6"}
{"i": [["[\"bias_add_grad\", 768, 6144]", "cuda -keys=cuda,gpu -max_num_threads=1024 -thread_warp_size=32", [-1, 16, 64, 49152, 2147483647, 1024, 8, 32], "", 0, []], [[], [["SP", 1, 0, 768, [24], 1], ["AN", 1, 0, 5], ["AN", 1, 1, 6], ["PR", 1, 0, "auto_unroll_max_step$512"]]]], "r": [[7.83509e-05], 0, 1.93043, 1629490617], "v": "v0.6"}
{"i": [["[\"bias_add_grad\", 768, 6144]", "cuda -keys=cuda,gpu -max_num_threads=1024 -thread_warp_size=32", [-1, 16, 64, 49152, 2147483647, 1024, 8, 32], "", 0, []], [[], [["SP", 1, 0, 768, [2], 1], ["AN", 1, 0, 5], ["AN", 1, 1, 6], ["PR", 1, 0, "auto_unroll_max_step$1024"]]]], "r": [[8.67456e-05], 0, 2.93826, 1629490618], "v": "v0.6"}
{"i": [["[\"bias_add_grad\", 768, 6144]", "cuda -keys=cuda,gpu -max_num_threads=1024 -thread_warp_size=32", [-1, 16, 64, 49152, 2147483647, 1024, 8, 32], "", 0, []], [[], [["SP", 1, 1, 6144, [16], 1], ["AN", 1, 2, 6], ["AN", 1, 0, 5], ["PR", 1, 0, "auto_unroll_max_step$16"]]]], "r": [[8.29468e-05], 0, 1.93039, 1629490620], "v": "v0.6"}
{"i": [["[\"bias_add_grad\", 768, 6144]", "cuda -keys=cuda,gpu -max_num_threads=1024 -thread_warp_size=32", [-1, 16, 64, 49152, 2147483647, 1024, 8, 32], "", 0, []], [[], [["SP", 1, 0, 768, [64], 1], ["AN", 1, 0, 5], ["AN", 1, 1, 6], ["PR", 1, 0, "auto_unroll_max_step$0"]]]], "r": [[0.000156399], 0, 1.93636, 1629490621], "v": "v0.6"}
{"i": [["[\"bias_add_grad\", 768, 6144]", "cuda -keys=cuda,gpu -max_num_threads=1024 -thread_warp_size=32", [-1, 16, 64, 49152, 2147483647, 1024, 8, 32], "", 0, []], [[], [["SP", 1, 1, 6144, [1], 1], ["AN", 1, 2, 6], ["AN", 1, 0, 5], ["PR", 1, 0, "auto_unroll_max_step$16"]]]], "r": [[0.000145691], 0, 2.29418, 1629490624], "v": "v0.6"}
{"i": [["[\"bias_add_grad\", 768, 6144]", "cuda -keys=cuda,gpu -max_num_threads=1024 -thread_warp_size=32", [-1, 16, 64, 49152, 2147483647, 1024, 8, 32], "", 0, []], [[], [["SP", 1, 0, 768, [32], 1], ["AN", 1, 0, 5], ["AN", 1, 1, 6], ["PR", 1, 0, "auto_unroll_max_step$0"]]]], "r": [[7.8388e-05], 0, 1.80177, 1629490625], "v": "v0.6"}
{"i": [["[\"bias_add_grad\", 768, 6144]", "cuda -keys=cuda,gpu -max_num_threads=1024 -thread_warp_size=32", [-1, 16, 64, 49152, 2147483647, 1024, 8, 32], "", 0, []], [[], [["SP", 1, 1, 6144, [2], 1], ["AN", 1, 2, 6], ["AN", 1, 0, 5], ["PR", 1, 0, "auto_unroll_max_step$0"]]]], "r": [[8.35822e-05], 0, 2.1916, 1629490626], "v": "v0.6"}
{"i": [["[\"bias_add_grad\", 768, 6144]", "cuda -keys=cuda,gpu -max_num_threads=1024 -thread_warp_size=32", [-1, 16, 64, 49152, 2147483647, 1024, 8, 32], "", 0, []], [[], [["SP", 1, 1, 6144, [3], 1], ["AN", 1, 2, 6], ["AN", 1, 0, 5], ["PR", 1, 0, "auto_unroll_max_step$512"]]]], "r": [[8.33711e-05], 0, 2.28509, 1629490627], "v": "v0.6"}
{"i": [["[\"bias_add_grad\", 768, 6144]", "cuda -keys=cuda,gpu -max_num_threads=1024 -thread_warp_size=32", [-1, 16, 64, 49152, 2147483647, 1024, 8, 32], "", 0, []], [[], [["SP", 1, 1, 6144, [12], 1], ["AN", 1, 2, 6], ["AN", 1, 0, 5], ["PR", 1, 0, "auto_unroll_max_step$1024"]]]], "r": [[8.29134e-05], 0, 2.39256, 1629490629], "v": "v0.6"}
{"i": [["[\"bias_add_grad\", 768, 6144]", "cuda -keys=cuda,gpu -max_num_threads=1024 -thread_warp_size=32", [-1, 16, 64, 49152, 2147483647, 1024, 8, 32], "", 0, []], [[], [["SP", 1, 1, 6144, [4], 1], ["AN", 1, 2, 6], ["AN", 1, 0, 5], ["PR", 1, 0, "auto_unroll_max_step$0"]]]], "r": [[8.31339e-05], 0, 2.48069, 1629490630], "v": "v0.6"}
{"i": [["[\"bias_add_grad\", 768, 6144]", "cuda -keys=cuda,gpu -max_num_threads=1024 -thread_warp_size=32", [-1, 16, 64, 49152, 2147483647, 1024, 8, 32], "", 0, []], [[], [["SP", 1, 0, 768, [2], 1], ["AN", 1, 0, 5], ["AN", 1, 1, 6], ["PR", 1, 0, "auto_unroll_max_step$64"]]]], "r": [[8.67616e-05], 0, 2.54201, 1629490631], "v": "v0.6"}
{"i": [["[\"bias_add_grad\", 768, 6144]", "cuda -keys=cuda,gpu -max_num_threads=1024 -thread_warp_size=32", [-1, 16, 64, 49152, 2147483647, 1024, 8, 32], "", 0, []], [[], [["SP", 1, 0, 768, [64], 1], ["AN", 1, 0, 5], ["AN", 1, 1, 6], ["PR", 1, 0, "auto_unroll_max_step$16"]]]], "r": [[0.000156342], 0, 2.49772, 1629490633], "v": "v0.6"}
{"i": [["[\"bias_add_grad\", 768, 6144]", "cuda -keys=cuda,gpu -max_num_threads=1024 -thread_warp_size=32", [-1, 16, 64, 49152, 2147483647, 1024, 8, 32], "", 0, []], [[], [["SP", 1, 0, 768, [1], 1], ["AN", 1, 0, 5], ["AN", 1, 1, 6], ["PR", 1, 0, "auto_unroll_max_step$512"]]]], "r": [[0.000160434], 0, 1.88901, 1629490634], "v": "v0.6"}
{"i": [["[\"bias_add_grad\", 768, 6144]", "cuda -keys=cuda,gpu -max_num_threads=1024 -thread_warp_size=32", [-1, 16, 64, 49152, 2147483647, 1024, 8, 32], "", 0, []], [[], [["SP", 1, 0, 768, [1], 1], ["AN", 1, 0, 5], ["AN", 1, 1, 6], ["PR", 1, 0, "auto_unroll_max_step$1024"]]]], "r": [[0.00016047], 0, 1.8654, 1629490635], "v": "v0.6"}
{"i": [["[\"bias_add_grad\", 768, 6144]", "cuda -keys=cuda,gpu -max_num_threads=1024 -thread_warp_size=32", [-1, 16, 64, 49152, 2147483647, 1024, 8, 32], "", 0, []], [[], [["SP", 1, 1, 6144, [4], 1], ["AN", 1, 2, 6], ["AN", 1, 0, 5], ["PR", 1, 0, "auto_unroll_max_step$16"]]]], "r": [[8.30507e-05], 0, 2.38555, 1629490636], "v": "v0.6"}
{"i": [["[\"bias_add_grad\", 768, 6144]", "cuda -keys=cuda,gpu -max_num_threads=1024 -thread_warp_size=32", [-1, 16, 64, 49152, 2147483647, 1024, 8, 32], "", 0, []], [[], [["SP", 1, 1, 6144, [64], 1], ["AN", 1, 2, 6], ["AN", 1, 0, 5], ["PR", 1, 0, "auto_unroll_max_step$1024"]]]], "r": [[8.28101e-05], 0, 1.89103, 1629490638], "v": "v0.6"}
{"i": [["[\"bias_add_grad\", 768, 6144]", "cuda -keys=cuda,gpu -max_num_threads=1024 -thread_warp_size=32", [-1, 16, 64, 49152, 2147483647, 1024, 8, 32], "", 0, []], [[], [["SP", 1, 0, 768, [2], 1], ["AN", 1, 0, 5], ["AN", 1, 1, 6], ["PR", 1, 0, "auto_unroll_max_step$0"]]]], "r": [[8.67264e-05], 0, 1.87268, 1629490639], "v": "v0.6"}
{"i": [["[\"bias_add_grad\", 768, 6144]", "cuda -keys=cuda,gpu -max_num_threads=1024 -thread_warp_size=32", [-1, 16, 64, 49152, 2147483647, 1024, 8, 32], "", 0, []], [[], [["SP", 1, 0, 768, [32], 1], ["AN", 1, 0, 5], ["AN", 1, 1, 6], ["PR", 1, 0, "auto_unroll_max_step$64"]]]], "r": [[7.83839e-05], 0, 2.11088, 1629490640], "v": "v0.6"}
{"i": [["[\"bias_add_grad\", 768, 6144]", "cuda -keys=cuda,gpu -max_num_threads=1024 -thread_warp_size=32", [-1, 16, 64, 49152, 2147483647, 1024, 8, 32], "", 0, []], [[], [["SP", 1, 0, 768, [32], 1], ["AN", 1, 0, 5], ["AN", 1, 1, 6], ["PR", 1, 0, "auto_unroll_max_step$1024"]]]], "r": [[7.83855e-05], 0, 2.17077, 1629490642], "v": "v0.6"}
{"i": [["[\"bias_add_grad\", 768, 6144]", "cuda -keys=cuda,gpu -max_num_threads=1024 -thread_warp_size=32", [-1, 16, 64, 49152, 2147483647, 1024, 8, 32], "", 0, []], [[], [["SP", 1, 1, 6144, [32], 1], ["AN", 1, 2, 6], ["AN", 1, 0, 5], ["PR", 1, 0, "auto_unroll_max_step$1024"]]]], "r": [[8.2781e-05], 0, 2.1311, 1629490643], "v": "v0.6"}
{"i": [["[\"bias_add_grad\", 768, 6144]", "cuda -keys=cuda,gpu -max_num_threads=1024 -thread_warp_size=32", [-1, 16, 64, 49152, 2147483647, 1024, 8, 32], "", 0, []], [[], [["SP", 1, 1, 6144, [2], 1], ["AN", 1, 2, 6], ["AN", 1, 0, 5], ["PR", 1, 0, "auto_unroll_max_step$512"]]]], "r": [[8.35446e-05], 0, 2.52502, 1629490652], "v": "v0.6"}
{"i": [["[\"bias_add_grad\", 768, 6144]", "cuda -keys=cuda,gpu -max_num_threads=1024 -thread_warp_size=32", [-1, 16, 64, 49152, 2147483647, 1024, 8, 32], "", 0, []], [[], [["SP", 1, 1, 6144, [8], 1], ["AN", 1, 2, 6], ["AN", 1, 0, 5], ["PR", 1, 0, "auto_unroll_max_step$64"]]]], "r": [[8.29391e-05], 0, 2.61963, 1629490653], "v": "v0.6"}
{"i": [["[\"bias_add_grad\", 768, 6144]", "cuda -keys=cuda,gpu -max_num_threads=1024 -thread_warp_size=32", [-1, 16, 64, 49152, 2147483647, 1024, 8, 32], "", 0, []], [[], [["SP", 1, 1, 6144, [48], 1], ["AN", 1, 2, 6], ["AN", 1, 0, 5], ["PR", 1, 0, "auto_unroll_max_step$512"]]]], "r": [[8.28874e-05], 0, 3.02754, 1629490654], "v": "v0.6"}
{"i": [["[\"bias_add_grad\", 768, 6144]", "cuda -keys=cuda,gpu -max_num_threads=1024 -thread_warp_size=32", [-1, 16, 64, 49152, 2147483647, 1024, 8, 32], "", 0, []], [[], [["SP", 1, 0, 768, [16], 1], ["AN", 1, 0, 5], ["AN", 1, 1, 6], ["PR", 1, 0, "auto_unroll_max_step$16"]]]], "r": [[7.88578e-05], 0, 2.98138, 1629490655], "v": "v0.6"}
{"i": [["[\"bias_add_grad\", 768, 6144]", "cuda -keys=cuda,gpu -max_num_threads=1024 -thread_warp_size=32", [-1, 16, 64, 49152, 2147483647, 1024, 8, 32], "", 0, []], [[], [["SP", 1, 1, 6144, [8], 1], ["AN", 1, 2, 6], ["AN", 1, 0, 5], ["PR", 1, 0, "auto_unroll_max_step$512"]]]], "r": [[8.29916e-05], 0, 2.59232, 1629490657], "v": "v0.6"}
{"i": [["[\"bias_add_grad\", 768, 6144]", "cuda -keys=cuda,gpu -max_num_threads=1024 -thread_warp_size=32", [-1, 16, 64, 49152, 2147483647, 1024, 8, 32], "", 0, []], [[], [["SP", 1, 1, 6144, [24], 1], ["AN", 1, 2, 6], ["AN", 1, 0, 5], ["PR", 1, 0, "auto_unroll_max_step$64"]]]], "r": [[8.28855e-05], 0, 2.19061, 1629490658], "v": "v0.6"}
{"i": [["[\"bias_add_grad\", 768, 6144]", "cuda -keys=cuda,gpu -max_num_threads=1024 -thread_warp_size=32", [-1, 16, 64, 49152, 2147483647, 1024, 8, 32], "", 0, []], [[], [["SP", 1, 1, 6144, [6], 1], ["AN", 1, 2, 6], ["AN", 1, 0, 5], ["PR", 1, 0, "auto_unroll_max_step$512"]]]], "r": [[8.29622e-05], 0, 2.56752, 1629490659], "v": "v0.6"}
{"i": [["[\"bias_add_grad\", 768, 6144]", "cuda -keys=cuda,gpu -max_num_threads=1024 -thread_warp_size=32", [-1, 16, 64, 49152, 2147483647, 1024, 8, 32], "", 0, []], [[], [["SP", 1, 0, 768, [16], 1], ["AN", 1, 0, 5], ["AN", 1, 1, 6], ["PR", 1, 0, "auto_unroll_max_step$1024"]]]], "r": [[7.88606e-05], 0, 4.12782, 1629490660], "v": "v0.6"}
{"i": [["[\"bias_add_grad\", 768, 6144]", "cuda -keys=cuda,gpu -max_num_threads=1024 -thread_warp_size=32", [-1, 16, 64, 49152, 2147483647, 1024, 8, 32], "", 0, []], [[], [["SP", 1, 0, 768, [24], 1], ["AN", 1, 0, 5], ["AN", 1, 1, 6], ["PR", 1, 0, "auto_unroll_max_step$16"]]]], "r": [[7.83375e-05], 0, 2.57344, 1629490662], "v": "v0.6"}
{"i": [["[\"bias_add_grad\", 768, 6144]", "cuda -keys=cuda,gpu -max_num_threads=1024 -thread_warp_size=32", [-1, 16, 64, 49152, 2147483647, 1024, 8, 32], "", 0, []], [[], [["SP", 1, 1, 6144, [12], 1], ["AN", 1, 2, 6], ["AN", 1, 0, 5], ["PR", 1, 0, "auto_unroll_max_step$64"]]]], "r": [[8.28886e-05], 0, 1.93884, 1629490663], "v": "v0.6"}
{"i": [["[\"bias_add_grad\", 768, 6144]", "cuda -keys=cuda,gpu -max_num_threads=1024 -thread_warp_size=32", [-1, 16, 64, 49152, 2147483647, 1024, 8, 32], "", 0, []], [[], [["SP", 1, 0, 768, [8], 1], ["AN", 1, 0, 5], ["AN", 1, 1, 6], ["PR", 1, 0, "auto_unroll_max_step$1024"]]]], "r": [[7.97653e-05], 0, 2.43772, 1629490664], "v": "v0.6"}
{"i": [["[\"bias_add_grad\", 768, 6144]", "cuda -keys=cuda,gpu -max_num_threads=1024 -thread_warp_size=32", [-1, 16, 64, 49152, 2147483647, 1024, 8, 32], "", 0, []], [[], [["SP", 1, 1, 6144, [1], 1], ["AN", 1, 2, 6], ["AN", 1, 0, 5], ["PR", 1, 0, "auto_unroll_max_step$64"]]]], "r": [[0.000145676], 0, 3.08112, 1629490666], "v": "v0.6"}
{"i": [["[\"bias_add_grad\", 768, 6144]", "cuda -keys=cuda,gpu -max_num_threads=1024 -thread_warp_size=32", [-1, 16, 64, 49152, 2147483647, 1024, 8, 32], "", 0, []], [[], [["SP", 1, 0, 768, [8], 1], ["AN", 1, 0, 5], ["AN", 1, 1, 6], ["PR", 1, 0, "auto_unroll_max_step$0"]]]], "r": [[7.97464e-05], 0, 2.5767, 1629490667], "v": "v0.6"}
{"i": [["[\"bias_add_grad\", 768, 6144]", "cuda -keys=cuda,gpu -max_num_threads=1024 -thread_warp_size=32", [-1, 16, 64, 49152, 2147483647, 1024, 8, 32], "", 0, []], [[], [["SP", 1, 0, 768, [3], 1], ["AN", 1, 0, 5], ["AN", 1, 1, 6], ["PR", 1, 0, "auto_unroll_max_step$64"]]]], "r": [[8.67655e-05], 0, 2.03445, 1629490668], "v": "v0.6"}
{"i": [["[\"bias_add_grad\", 768, 6144]", "cuda -keys=cuda,gpu -max_num_threads=1024 -thread_warp_size=32", [-1, 16, 64, 49152, 2147483647, 1024, 8, 32], "", 0, []], [[], [["SP", 1, 0, 768, [4], 1], ["AN", 1, 0, 5], ["AN", 1, 1, 6], ["PR", 1, 0, "auto_unroll_max_step$512"]]]], "r": [[8.26329e-05], 0, 2.41002, 1629490669], "v": "v0.6"}
{"i": [["[\"bias_add_grad\", 768, 6144]", "cuda -keys=cuda,gpu -max_num_threads=1024 -thread_warp_size=32", [-1, 16, 64, 49152, 2147483647, 1024, 8, 32], "", 0, []], [[], [["SP", 1, 0, 768, [16], 1], ["AN", 1, 0, 5], ["AN", 1, 1, 6], ["PR", 1, 0, "auto_unroll_max_step$0"]]]], "r": [[7.88504e-05], 0, 3.09856, 1629490671], "v": "v0.6"}
{"i": [["[\"bias_add_grad\", 768, 6144]", "cuda -keys=cuda,gpu -max_num_threads=1024 -thread_warp_size=32", [-1, 16, 64, 49152, 2147483647, 1024, 8, 32], "", 0, []], [[], [["SP", 1, 1, 6144, [6], 1], ["AN", 1, 2, 6], ["AN", 1, 0, 5], ["PR", 1, 0, "auto_unroll_max_step$0"]]]], "r": [[8.29753e-05], 0, 3.37585, 1629490672], "v": "v0.6"}
{"i": [["[\"bias_add_grad\", 768, 6144]", "cuda -keys=cuda,gpu -max_num_threads=1024 -thread_warp_size=32", [-1, 16, 64, 49152, 2147483647, 1024, 8, 32], "", 0, []], [[], [["SP", 1, 0, 768, [64], 1], ["AN", 1, 0, 5], ["AN", 1, 1, 6], ["PR", 1, 0, "auto_unroll_max_step$64"]]]], "r": [[0.000156394], 0, 2.64974, 1629490673], "v": "v0.6"}
{"i": [["[\"bias_add_grad\", 768, 6144]", "cuda -keys=cuda,gpu -max_num_threads=1024 -thread_warp_size=32", [-1, 16, 64, 49152, 2147483647, 1024, 8, 32], "", 0, []], [[], [["SP", 1, 1, 6144, [4], 1], ["AN", 1, 2, 6], ["AN", 1, 0, 5], ["PR", 1, 0, "auto_unroll_max_step$1024"]]]], "r": [[8.30927e-05], 0, 2.84067, 1629490675], "v": "v0.6"}
{"i": [["[\"bias_add_grad\", 768, 6144]", "cuda -keys=cuda,gpu -max_num_threads=1024 -thread_warp_size=32", [-1, 16, 64, 49152, 2147483647, 1024, 8, 32], "", 0, []], [[], [["SP", 1, 0, 768, [4], 1], ["AN", 1, 0, 5], ["AN", 1, 1, 6], ["PR", 1, 0, "auto_unroll_max_step$64"]]]], "r": [[8.26285e-05], 0, 2.40262, 1629490676], "v": "v0.6"}
{"i": [["[\"bias_add_grad\", 768, 6144]", "cuda -keys=cuda,gpu -max_num_threads=1024 -thread_warp_size=32", [-1, 16, 64, 49152, 2147483647, 1024, 8, 32], "", 0, []], [[], [["SP", 1, 1, 6144, [8], 1], ["AN", 1, 2, 6], ["AN", 1, 0, 5], ["PR", 1, 0, "auto_unroll_max_step$1024"]]]], "r": [[8.2952e-05], 0, 2.9588, 1629490677], "v": "v0.6"}
{"i": [["[\"bias_add_grad\", 768, 6144]", "cuda -keys=cuda,gpu -max_num_threads=1024 -thread_warp_size=32", [-1, 16, 64, 49152, 2147483647, 1024, 8, 32], "", 0, []], [[], [["SP", 1, 0, 768, [3], 1], ["AN", 1, 0, 5], ["AN", 1, 1, 6], ["PR", 1, 0, "auto_unroll_max_step$16"]]]], "r": [[8.67547e-05], 0, 3.46692, 1629490678], "v": "v0.6"}
{"i": [["[\"bias_add_grad\", 768, 6144]", "cuda -keys=cuda,gpu -max_num_threads=1024 -thread_warp_size=32", [-1, 16, 64, 49152, 2147483647, 1024, 8, 32], "", 0, []], [[], [["SP", 1, 1, 6144, [16], 1], ["AN", 1, 2, 6], ["AN", 1, 0, 5], ["PR", 1, 0, "auto_unroll_max_step$1024"]]]], "r": [[8.29658e-05], 0, 2.24817, 1629490680], "v": "v0.6"}
{"i": [["[\"bias_add_grad\", 768, 6144]", "cuda -keys=cuda,gpu -max_num_threads=1024 -thread_warp_size=32", [-1, 16, 64, 49152, 2147483647, 1024, 8, 32], "", 0, []], [[], [["SP", 1, 1, 6144, [48], 1], ["AN", 1, 2, 6], ["AN", 1, 0, 5], ["PR", 1, 0, "auto_unroll_max_step$1024"]]]], "r": [[8.28554e-05], 0, 2.59412, 1629490681], "v": "v0.6"}
{"i": [["[\"bias_add_grad\", 768, 6144]", "cuda -keys=cuda,gpu -max_num_threads=1024 -thread_warp_size=32", [-1, 16, 64, 49152, 2147483647, 1024, 8, 32], "", 0, []], [[], [["SP", 1, 0, 768, [3], 1], ["AN", 1, 0, 5], ["AN", 1, 1, 6], ["PR", 1, 0, "auto_unroll_max_step$0"]]]], "r": [[8.67276e-05], 0, 3.53687, 1629490682], "v": "v0.6"}
{"i": [["[\"bias_add_grad\", 768, 6144]", "cuda -keys=cuda,gpu -max_num_threads=1024 -thread_warp_size=32", [-1, 16, 64, 49152, 2147483647, 1024, 8, 32], "", 0, []], [[], [["SP", 1, 0, 768, [12], 1], ["AN", 1, 0, 5], ["AN", 1, 1, 6], ["PR", 1, 0, "auto_unroll_max_step$512"]]]], "r": [[7.80516e-05], 0, 3.59554, 1629490684], "v": "v0.6"}
{"i": [["[\"bias_add_grad\", 768, 6144]", "cuda -keys=cuda,gpu -max_num_threads=1024 -thread_warp_size=32", [-1, 16, 64, 49152, 2147483647, 1024, 8, 32], "", 0, []], [[], [["SP", 1, 1, 6144, [2], 1], ["AN", 1, 2, 6], ["AN", 1, 0, 5], ["PR", 1, 0, "auto_unroll_max_step$1024"]]]], "r": [[8.35363e-05], 0, 2.78437, 1629490685], "v": "v0.6"}
{"i": [["[\"bias_add_grad\", 768, 6144]", "cuda -keys=cuda,gpu -max_num_threads=1024 -thread_warp_size=32", [-1, 16, 64, 49152, 2147483647, 1024, 8, 32], "", 0, []], [[], [["SP", 1, 1, 6144, [12], 1], ["AN", 1, 2, 6], ["AN", 1, 0, 5], ["PR", 1, 0, "auto_unroll_max_step$512"]]]], "r": [[8.28503e-05], 0, 3.49368, 1629490686], "v": "v0.6"}
{"i": [["[\"bias_add_grad\", 768, 6144]", "cuda -keys=cuda,gpu -max_num_threads=1024 -thread_warp_size=32", [-1, 16, 64, 49152, 2147483647, 1024, 8, 32], "", 0, []], [[], [["SP", 1, 0, 768, [16], 1], ["AN", 1, 0, 5], ["AN", 1, 1, 6], ["PR", 1, 0, "auto_unroll_max_step$512"]]]], "r": [[7.88576e-05], 0, 3.34353, 1629490687], "v": "v0.6"}
{"i": [["[\"bias_add_grad\", 768, 6144]", "cuda -keys=cuda,gpu -max_num_threads=1024 -thread_warp_size=32", [-1, 16, 64, 49152, 2147483647, 1024, 8, 32], "", 0, []], [[], [["SP", 1, 1, 6144, [1], 1], ["AN", 1, 2, 6], ["AN", 1, 0, 5], ["PR", 1, 0, "auto_unroll_max_step$512"]]]], "r": [[0.00014568], 0, 2.89297, 1629490689], "v": "v0.6"}
{"i": [["[\"bias_add_grad\", 768, 6144]", "cuda -keys=cuda,gpu -max_num_threads=1024 -thread_warp_size=32", [-1, 16, 64, 49152, 2147483647, 1024, 8, 32], "", 0, []], [[], [["SP", 1, 0, 768, [48], 1], ["AN", 1, 0, 5], ["AN", 1, 1, 6], ["PR", 1, 0, "auto_unroll_max_step$16"]]]], "r": [[0.000161995], 0, 3.67178, 1629490690], "v": "v0.6"}
{"i": [["[\"bias_add_grad\", 768, 6144]", "cuda -keys=cuda,gpu -max_num_threads=1024 -thread_warp_size=32", [-1, 16, 64, 49152, 2147483647, 1024, 8, 32], "", 0, []], [[], [["SP", 1, 1, 6144, [4], 1], ["AN", 1, 2, 6], ["AN", 1, 0, 5], ["PR", 1, 0, "auto_unroll_max_step$64"]]]], "r": [[8.30864e-05], 0, 3.37626, 1629490691], "v": "v0.6"}
{"i": [["[\"bias_add_grad\", 768, 6144]", "cuda -keys=cuda,gpu -max_num_threads=1024 -thread_warp_size=32", [-1, 16, 64, 49152, 2147483647, 1024, 8, 32], "", 0, []], [[], [["SP", 1, 1, 6144, [6], 1], ["AN", 1, 2, 6], ["AN", 1, 0, 5], ["PR", 1, 0, "auto_unroll_max_step$1024"]]]], "r": [[8.29248e-05], 0, 3.10707, 1629490693], "v": "v0.6"}
{"i": [["[\"bias_add_grad\", 768, 6144]", "cuda -keys=cuda,gpu -max_num_threads=1024 -thread_warp_size=32", [-1, 16, 64, 49152, 2147483647, 1024, 8, 32], "", 0, []], [[], [["SP", 1, 1, 6144, [12], 1], ["AN", 1, 2, 6], ["AN", 1, 0, 5], ["PR", 1, 0, "auto_unroll_max_step$16"]]]], "r": [[8.28464e-05], 0, 2.67439, 1629490694], "v": "v0.6"}
{"i": [["[\"bias_add_grad\", 768, 6144]", "cuda -keys=cuda,gpu -max_num_threads=1024 -thread_warp_size=32", [-1, 16, 64, 49152, 2147483647, 1024, 8, 32], "", 0, []], [[], [["SP", 1, 1, 6144, [16], 1], ["AN", 1, 2, 6], ["AN", 1, 0, 5], ["PR", 1, 0, "auto_unroll_max_step$512"]]]], "r": [[8.29477e-05], 0, 3.19806, 1629490695], "v": "v0.6"}
{"i": [["[\"bias_add_grad\", 768, 6144]", "cuda -keys=cuda,gpu -max_num_threads=1024 -thread_warp_size=32", [-1, 16, 64, 49152, 2147483647, 1024, 8, 32], "", 0, []], [[], [["SP", 1, 1, 6144, [64], 1], ["AN", 1, 2, 6], ["AN", 1, 0, 5], ["PR", 1, 0, "auto_unroll_max_step$64"]]]], "r": [[8.28453e-05], 0, 3.19835, 1629490696], "v": "v0.6"}
{"i": [["[\"bias_add_grad\", 768, 6144]", "cuda -keys=cuda,gpu -max_num_threads=1024 -thread_warp_size=32", [-1, 16, 64, 49152, 2147483647, 1024, 8, 32], "", 0, []], [[], [["SP", 1, 0, 768, [8], 1], ["AN", 1, 0, 5], ["AN", 1, 1, 6], ["PR", 1, 0, "auto_unroll_max_step$64"]]]], "r": [[7.97757e-05], 0, 3.49092, 1629490698], "v": "v0.6"}
{"i": [["[\"bias_add_grad\", 768, 6144]", "cuda -keys=cuda,gpu -max_num_threads=1024 -thread_warp_size=32", [-1, 16, 64, 49152, 2147483647, 1024, 8, 32], "", 0, []], [[], [["SP", 1, 1, 6144, [3], 1], ["AN", 1, 2, 6], ["AN", 1, 0, 5], ["PR", 1, 0, "auto_unroll_max_step$64"]]]], "r": [[8.33752e-05], 0, 2.37807, 1629490699], "v": "v0.6"}
{"i": [["[\"bias_add_grad\", 768, 6144]", "cuda -keys=cuda,gpu -max_num_threads=1024 -thread_warp_size=32", [-1, 16, 64, 49152, 2147483647, 1024, 8, 32], "", 0, []], [[], [["SP", 1, 1, 6144, [4], 1], ["AN", 1, 2, 6], ["AN", 1, 0, 5], ["PR", 1, 0, "auto_unroll_max_step$512"]]]], "r": [[8.30775e-05], 0, 3.0021, 1629490700], "v": "v0.6"}
{"i": [["[\"bias_add_grad\", 768, 6144]", "cuda -keys=cuda,gpu -max_num_threads=1024 -thread_warp_size=32", [-1, 16, 64, 49152, 2147483647, 1024, 8, 32], "", 0, []], [[], [["SP", 1, 1, 6144, [16], 1], ["AN", 1, 2, 6], ["AN", 1, 0, 5], ["PR", 1, 0, "auto_unroll_max_step$0"]]]], "r": [[8.29062e-05], 0, 3.18414, 1629490701], "v": "v0.6"}
{"i": [["[\"bias_add_grad\", 768, 6144]", "cuda -keys=cuda,gpu -max_num_threads=1024 -thread_warp_size=32", [-1, 16, 64, 49152, 2147483647, 1024, 8, 32], "", 0, []], [[], [["SP", 1, 1, 6144, [8], 1], ["AN", 1, 2, 6], ["AN", 1, 0, 5], ["PR", 1, 0, "auto_unroll_max_step$0"]]]], "r": [[8.29181e-05], 0, 2.96407, 1629490703], "v": "v0.6"}
{"i": [["[\"bias_add_grad\", 768, 6144]", "cuda -keys=cuda,gpu -max_num_threads=1024 -thread_warp_size=32", [-1, 16, 64, 49152, 2147483647, 1024, 8, 32], "", 0, []], [[], [["SP", 1, 1, 6144, [64], 1], ["AN", 1, 2, 6], ["AN", 1, 0, 5], ["PR", 1, 0, "auto_unroll_max_step$0"]]]], "r": [[8.28197e-05], 0, 3.13015, 1629490704], "v": "v0.6"}
{"i": [["[\"bias_add_grad\", 768, 6144]", "cuda -keys=cuda,gpu -max_num_threads=1024 -thread_warp_size=32", [-1, 16, 64, 49152, 2147483647, 1024, 8, 32], "", 0, []], [[], [["SP", 1, 1, 6144, [48], 1], ["AN", 1, 2, 6], ["AN", 1, 0, 5], ["PR", 1, 0, "auto_unroll_max_step$16"]]]], "r": [[8.28327e-05], 0, 3.25032, 1629490705], "v": "v0.6"}
{"i": [["[\"bias_add_grad\", 768, 6144]", "cuda -keys=cuda,gpu -max_num_threads=1024 -thread_warp_size=32", [-1, 16, 64, 49152, 2147483647, 1024, 8, 32], "", 0, []], [[], [["SP", 1, 1, 6144, [32], 1], ["AN", 1, 2, 6], ["AN", 1, 0, 5], ["PR", 1, 0, "auto_unroll_max_step$16"]]]], "r": [[8.27974e-05], 0, 2.53524, 1629490707], "v": "v0.6"}
{"i": [["[\"bias_add_grad\", 768, 6144]", "cuda -keys=cuda,gpu -max_num_threads=1024 -thread_warp_size=32", [-1, 16, 64, 49152, 2147483647, 1024, 8, 32], "", 0, []], [[], [["SP", 1, 0, 768, [4], 1], ["AN", 1, 0, 5], ["AN", 1, 1, 6], ["PR", 1, 0, "auto_unroll_max_step$16"]]]], "r": [[8.25997e-05], 0, 3.0334, 1629490708], "v": "v0.6"}
{"i": [["[\"bias_add_grad\", 768, 6144]", "cuda -keys=cuda,gpu -max_num_threads=1024 -thread_warp_size=32", [-1, 16, 64, 49152, 2147483647, 1024, 8, 32], "", 0, []], [[], [["SP", 1, 1, 6144, [3], 1], ["AN", 1, 2, 6], ["AN", 1, 0, 5], ["PR", 1, 0, "auto_unroll_max_step$16"]]]], "r": [[8.32953e-05], 0, 2.76741, 1629490709], "v": "v0.6"}
{"i": [["[\"bias_add_grad\", 768, 6144]", "cuda -keys=cuda,gpu -max_num_threads=1024 -thread_warp_size=32", [-1, 16, 64, 49152, 2147483647, 1024, 8, 32], "", 0, []], [[], [["SP", 1, 1, 6144, [1], 1], ["AN", 1, 2, 6], ["AN", 1, 0, 5], ["PR", 1, 0, "auto_unroll_max_step$1024"]]]], "r": [[0.000145637], 0, 2.57477, 1629490711], "v": "v0.6"}
{"i": [["[\"bias_add_grad\", 768, 6144]", "cuda -keys=cuda,gpu -max_num_threads=1024 -thread_warp_size=32", [-1, 16, 64, 49152, 2147483647, 1024, 8, 32], "", 0, []], [[], [["SP", 1, 1, 6144, [16], 1], ["AN", 1, 2, 6], ["AN", 1, 0, 5], ["PR", 1, 0, "auto_unroll_max_step$64"]]]], "r": [[8.29585e-05], 0, 2.49057, 1629490712], "v": "v0.6"}
{"i": [["[\"bias_add_grad\", 768, 6144]", "cuda -keys=cuda,gpu -max_num_threads=1024 -thread_warp_size=32", [-1, 16, 64, 49152, 2147483647, 1024, 8, 32], "", 0, []], [[], [["SP", 1, 1, 6144, [24], 1], ["AN", 1, 2, 6], ["AN", 1, 0, 5], ["PR", 1, 0, "auto_unroll_max_step$1024"]]]], "r": [[8.28903e-05], 0, 1.82219, 1629490714], "v": "v0.6"}
{"i": [["[\"bias_add_grad\", 768, 6144]", "cuda -keys=cuda,gpu -max_num_threads=1024 -thread_warp_size=32", [-1, 16, 64, 49152, 2147483647, 1024, 8, 32], "", 0, []], [[], [["SP", 1, 0, 768, [32], 1], ["AN", 1, 0, 5], ["AN", 1, 1, 6], ["PR", 1, 0, "auto_unroll_max_step$512"]]]], "r": [[7.83419e-05], 0, 1.83396, 1629490715], "v": "v0.6"}
{"i": [["[\"bias_add_grad\", 768, 6144]", "cuda -keys=cuda,gpu -max_num_threads=1024 -thread_warp_size=32", [-1, 16, 64, 49152, 2147483647, 1024, 8, 32], "", 0, []], [[], [["SP", 1, 0, 768, [1], 1], ["AN", 1, 0, 5], ["AN", 1, 1, 6], ["PR", 1, 0, "auto_unroll_max_step$64"]]]], "r": [[0.000160381], 0, 1.78066, 1629490716], "v": "v0.6"}
{"i": [["[\"bias_add_grad\", 768, 6144]", "cuda -keys=cuda,gpu -max_num_threads=1024 -thread_warp_size=32", [-1, 16, 64, 49152, 2147483647, 1024, 8, 32], "", 0, []], [[], [["SP", 1, 0, 768, [2], 1], ["AN", 1, 0, 5], ["AN", 1, 1, 6], ["PR", 1, 0, "auto_unroll_max_step$512"]]]], "r": [[8.67117e-05], 0, 1.79842, 1629490718], "v": "v0.6"}
{"i": [["[\"bias_add_grad\", 768, 6144]", "cuda -keys=cuda,gpu -max_num_threads=1024 -thread_warp_size=32", [-1, 16, 64, 49152, 2147483647, 1024, 8, 32], "", 0, []], [[], [["SP", 1, 0, 768, [12], 1], ["AN", 1, 0, 5], ["AN", 1, 1, 6], ["PR", 1, 0, "auto_unroll_max_step$1024"]]]], "r": [[7.80052e-05], 0, 1.86036, 1629490719], "v": "v0.6"}
{"i": [["[\"bias_add_grad\", 768, 6144]", "cuda -keys=cuda,gpu -max_num_threads=1024 -thread_warp_size=32", [-1, 16, 64, 49152, 2147483647, 1024, 8, 32], "", 0, []], [[], [["SP", 1, 0, 768, [32], 1], ["AN", 1, 0, 5], ["AN", 1, 1, 6], ["PR", 1, 0, "auto_unroll_max_step$16"]]]], "r": [[7.83709e-05], 0, 1.6944, 1629490720], "v": "v0.6"}
{"i": [["[\"bias_add_grad\", 768, 6144]", "cuda -keys=cuda,gpu -max_num_threads=1024 -thread_warp_size=32", [-1, 16, 64, 49152, 2147483647, 1024, 8, 32], "", 0, []], [[], [["SP", 1, 0, 768, [24], 1], ["AN", 1, 0, 5], ["AN", 1, 1, 6], ["PR", 1, 0, "auto_unroll_max_step$64"]]]], "r": [[7.83079e-05], 0, 1.7992, 1629490722], "v": "v0.6"}
{"i": [["[\"bias_add_grad\", 768, 6144]", "cuda -keys=cuda,gpu -max_num_threads=1024 -thread_warp_size=32", [-1, 16, 64, 49152, 2147483647, 1024, 8, 32], "", 0, []], [[], [["SP", 1, 0, 768, [24], 1], ["AN", 1, 0, 5], ["AN", 1, 1, 6], ["PR", 1, 0, "auto_unroll_max_step$0"]]]], "r": [[7.83436e-05], 0, 1.75503, 1629490723], "v": "v0.6"}
